…
``` r
customer_days <- or_df_1 %>%
  select(CustomerID, Invoice_Date) %>%
  distinct() %>%
  arrange(Invoice_Date) %>%
  group_by(CustomerID) %>%
  mutate(no_days = sum(diff(Invoice_Date))) %>%
  arrange(no_days)  %>%
  filter(no_days > 0)

customer_days
```

    ## # A tibble: 18,192 x 3
    ## # Groups:   CustomerID [2,992]
    ##    CustomerID Invoice_Date no_days
    ##    <chr>      <date>       <time> 
    ##  1 15922      2010-12-01   1 days 
    ##  2 15922      2010-12-02   1 days 
    ##  3 16124      2011-01-26   1 days 
    ##  4 16124      2011-01-27   1 days 
    ##  5 13166      2011-03-01   1 days 
    ##  6 13166      2011-03-02   1 days 
    ##  7 15230      2011-04-13   1 days 
    ##  8 15230      2011-04-14   1 days 
    ##  9 17991      2011-04-27   1 days 
    ## 10 17991      2011-04-28   1 days 
    ## # … with 18,182 more rows
…
